…
{% highlight r %}
library(mason)
design(swiss, 'glm')
{% endhighlight %}



{% highlight text %}
#> # Analysis for glm is still under construction. 
#> # Showing data right now:
#> # A tibble: 47 x 6
#>   Fertility Agriculture Examination Education Catholic Infant.Mortality
#>       <dbl>       <dbl>       <int>     <int>    <dbl>            <dbl>
#> 1      80.2        17.0          15        12     9.96             22.2
#> 2      83.1        45.1           6         9    84.84             22.2
#> 3      92.5        39.7           5         5    93.40             20.2
#> 4      85.8        36.5          12         7    33.77             20.3
#> 5      76.9        43.5          17        15     5.16             20.6
#> 6      76.1        35.3           9         7    90.57             26.6
#> # ... with 41 more rows
…
{% highlight r %}
library(magrittr)
dp <- design(swiss, 'glm') %>% 
    add_settings(family = gaussian()) %>% 
    add_variables('yvars', c('Fertility', 'Infant.Mortality')) %>% 
    add_variables('xvars', c('Education', 'Agriculture'))
dp
{% endhighlight %}



{% highlight text %}
#> # Analysis for glm is still under construction. 
#> # Showing data right now:
#> # A tibble: 47 x 6
#>   Fertility Agriculture Examination Education Catholic Infant.Mortality
#>       <dbl>       <dbl>       <int>     <int>    <dbl>            <dbl>
#> 1      80.2        17.0          15        12     9.96             22.2
#> 2      83.1        45.1           6         9    84.84             22.2
#> 3      92.5        39.7           5         5    93.40             20.2
#> 4      85.8        36.5          12         7    33.77             20.3
#> 5      76.9        43.5          17        15     5.16             20.6
#> 6      76.1        35.3           9         7    90.57             26.6
#> # ... with 41 more rows
…
{% highlight r %}
dp <- construct(dp)
dp
{% endhighlight %}



{% highlight text %}
#> # Analysis for glm constructed but has not been scrubbed. 
#> # Here is a peek at the results:
#> # A tibble: 8 x 10
#>             Yterms      Xterms        term     estimate  std.error
#>              <chr>       <chr>       <chr>        <dbl>      <dbl>
#> 1        Fertility Agriculture (Intercept) 60.304375228 4.25125562
#> 2        Fertility Agriculture XtermValues  0.194201749 0.07671176
#> 3        Fertility   Education (Intercept) 79.610058532 2.10409711
#> 4        Fertility   Education XtermValues -0.862350293 0.14484472
#> 5 Infant.Mortality Agriculture (Intercept) 20.337954766 1.05754318
#> 6 Infant.Mortality Agriculture XtermValues -0.007805071 0.01908283
#> # ... with 2 more rows, and 5 more variables: statistic <dbl>,
#> #   p.value <dbl>, conf.low <dbl>, conf.high <dbl>, sample.size <int>
…
{% highlight r %}
dp2 <- dp %>%
    add_variables('covariates', 'Catholic') %>% 
    construct()
dp2
{% endhighlight %}



{% highlight text %}
#> # Analysis for glm constructed but has not been scrubbed. 
#> # Here is a peek at the results:
#> # A tibble: 20 x 10
#>             Yterms      Xterms        term     estimate  std.error
#>              <chr>       <chr>       <chr>        <dbl>      <dbl>
#> 1        Fertility Agriculture (Intercept) 60.304375228 4.25125562
#> 2        Fertility Agriculture XtermValues  0.194201749 0.07671176
#> 3        Fertility   Education (Intercept) 79.610058532 2.10409711
#> 4        Fertility   Education XtermValues -0.862350293 0.14484472
#> 5 Infant.Mortality Agriculture (Intercept) 20.337954766 1.05754318
#> 6 Infant.Mortality Agriculture XtermValues -0.007805071 0.01908283
#> # ... with 14 more rows, and 5 more variables: statistic <dbl>,
#> #   p.value <dbl>, conf.low <dbl>, conf.high <dbl>, sample.size <int>
…
